{
	"dados": {
		"numeroIdentificadorLattes": "0000000000000004",
		"nome": "Autor Zero Quatro",
		"email": "zeroquatro@email.com"
	},
	"publicacoes": [
		{
			"dados": {
				"tipo": "conferencia",
				"ano": 2016,
				"titulo": "Publicação Zero Três Conferência",
				"qualis": "A2",
				"URL": "http://www.exemplo.org",
				"nome": "Conferência A",
                "sigla": "CA",
				"paginaInicio": "93",
				"paginaFim": "101",
                "local": "Local A",
                "editora": "Editora A"
			},
			"autores": [
				{
					"dados": {
						"numeroIdentificadorLattes": "0000000000000001",
						"nome": "Autor Zero Um",
						"email": "zeroum@gmail.com"
					}
				},
				{
					"dados": {
						"numeroIdentificadorLattes": "0000000000000004",
						"nome": "Autor Zero Quatro",
						"email": "zeroquatro@gmail.com"
					}
				}
			]
		},
		{
			"dados": {
				"tipo": "conferencia",
				"ano": 2016,
				"titulo": "Publicação Zero Quatro Conferência",
				"qualis": "C",
				"URL": "http://www.exemplo.org",
				"nome": "Conferência B",
                "sigla": "CB",
				"paginaInicio": "93",
				"paginaFim": "101",
                "local": "Local B",
                "editora": "Editora B"
			},
			"autores": [
				{
					"dados": {
						"numeroIdentificadorLattes": "0000000000000001",
						"nome": "Autor Zero Um",
						"email": "zeroum@gmail.com"
					}
				},
				{
					"dados": {
						"numeroIdentificadorLattes": "0000000000000003",
						"nome": "Autor Zero Três",
						"email": "zerotres@gmail.com"
					}
				},
				{
					"dados": {
						"numeroIdentificadorLattes": "0000000000000004",
						"nome": "Autor Zero Quatro",
						"email": "zeroquatro@gmail.com"
					}
				}
			]
		},
        {
			"dados": {
				"tipo": "conferencia",
				"ano": 2016,
				"titulo": "Publicação Zero Nove Conferência",
				"qualis": "A2",
				"URL": "http://www.exemplo.org",
				"nome": "Conferência G",
                "sigla": "CG",
				"paginaInicio": "93",
				"paginaFim": "101",
                "local": "Local G",
                "editora": "Editora G"
			},
			"autores": [
				{
					"dados": {
						"numeroIdentificadorLattes": "0000000000000002",
						"nome": "Autor Zero Dois",
						"email": "zerodois@gmail.com"
					}
				},
                {
					"dados": {
						"numeroIdentificadorLattes": "0000000000000003",
						"nome": "Autor Zero Três",
						"email": "zerotres@gmail.com"
					}
				},
				{
					"dados": {
						"numeroIdentificadorLattes": "0000000000000004",
						"nome": "Autor Zero Quatro",
						"email": "zeroquatro@gmail.com"
					}
				}
			]
		}
	]
}