{
    "$schema": "http://json-schema.org/draft-04/schema#",
    "id": "Autor",
    "type": "object",
    "required": [
        "dados"
    ],

    "properties": {
        "dados": {
            "type": "object",
            "required": [
                "nomeCompleto",
                "nomeCompletoNormalizado"
            ],
            "properties": {
                "curriculoCompleto": { "type": "boolean" },
                "numeroIdCNPQ": {
                    "oneOf": [
                        { "type": "string", "minLength": 16, "maxLength": 16 },
                        { "type": "string", "minLength": 0, "maxLength": 0 }
                    ]
                },
                "nomeCompleto": { "type": "string" },
                "nomeCompletoNormalizado": { "type": "string" },
                "nomeParaCitacao": { "type": "string" },
                "ultimaAtualizacao": { "type": "string" }
            }
        },

        "publicacoes": {
            "type": "object",
            "properties": {
                "artigosPublicados": {
                    "type": "array",
                    "items": { "$ref": "ArtigoPublicado" }
                },
                "trabalhosEmEventos": {
                    "type": "array",
                    "items": { "$ref": "TrabalhoEmEvento" }
                }
            }
        }
    } 
}

